…
## Imputing missing values

There are **2304** rows with missing values. I decided to fill the missing values with the median of that interval. 

```r
Day_step_No_NA <-  
  Walking %>%     
      group_by(interval) %>% 
          mutate(steps = ifelse(is.na(steps), median(steps, na.rm = TRUE),                     steps)) 

Day_step_No_NA
```

```
## # A tibble: 17,568 x 3
## # Groups:   interval [288]
##    steps date       interval
##    <int> <chr>         <int>
##  1     0 2012-10-01        0
##  2     0 2012-10-01        5
##  3     0 2012-10-01       10
##  4     0 2012-10-01       15
##  5     0 2012-10-01       20
##  6     0 2012-10-01       25
##  7     0 2012-10-01       30
##  8     0 2012-10-01       35
##  9     0 2012-10-01       40
## 10     0 2012-10-01       45
## # ... with 17,558 more rows
```
…
